<?xml version="1.0" encoding="UTF-8" standalone="no"?>
<svg style="enable-background:new" xmlns="http://www.w3.org/2000/svg" height="1024" width="1024" version="1.1" xmlns:xlink="http://www.w3.org/1999/xlink" viewBox="0 0 1024 1024">
 <defs>
  <filter id="a" style="color-interpolation-filters:sRGB" height="1.245" width="1.235" y="-.1226" x="-.1176">
   <feGaussianBlur stdDeviation="13.802437"/>
  </filter>
 </defs>
 <g fill-opacity=".08118" transform="matrix(.6592 0 0 .6592 342.6 -22.23)" stroke="#00f" display="none" fill="#00f">
  <path d="m166 576.4h179.9c145.3 0 166 20.74 166 165.9v144.2c0 145.2-20.76 165.9-166 165.9h-179.9c-145.2 0-166-20-166-165.6v-144.2c0-145.1 20.76-165.9 166-165.9z" display="inline"/>
  <circle style="color:#000000;enable-background:accumulate" cx="256" transform="matrix(1.2 0 0 1.2 -51.2 528.8)" display="inline" cy="238" r="120" stroke-width=".8333"/>
  <rect stroke-linejoin="round" style="color:#000000;enable-background:accumulate" display="inline" height="272" width="272" stroke-linecap="round" y="678.4" x="120"/>
  <rect stroke-linejoin="round" style="color:#000000;enable-background:accumulate" display="inline" height="240" width="304" stroke-linecap="round" y="694.4" x="104"/>
  <rect stroke-linejoin="round" style="color:#000000;enable-background:accumulate" display="inline" height="304" width="240" stroke-linecap="round" y="662.4" x="136"/>
 </g>
 <g transform="matrix(.8359 0 0 .8359 298 298)">
  <g fill-opacity=".08118" stroke="#00f" display="none" fill="#00f">
   <path style="enable-background:new" d="m166.1 18h179.9c145.3 0 166.1 20.74 166.1 165.9v144.2c0 145.2-20.76 165.9-166.1 165.9h-179.9c-145.3 0-166.1-20.7-166.1-165.9v-144.2c-0.0000075-145.2 20.76-165.9 166.1-165.9z" display="inline"/>
   <circle style="color:#000000;enable-background:accumulate" display="inline" cy="256" cx="256" r="144"/>
   <rect stroke-linejoin="round" style="color:#000000;enable-background:accumulate" display="inline" height="272" width="272" stroke-linecap="round" y="120" x="120"/>
   <rect stroke-linejoin="round" style="color:#000000;enable-background:accumulate" display="inline" height="240" width="304" stroke-linecap="round" y="136" x="104"/>
   <rect stroke-linejoin="round" style="color:#000000;enable-background:accumulate" display="inline" height="304" width="240" stroke-linecap="round" y="104" x="136"/>
  </g>
  <g transform="matrix(1.196 0 0 1.196 -50.37 -50.37)">
   <g opacity="0.28" transform="translate(-109.6 -11.66)" filter="url(#a)" fill="#000001">
    <path d="m527.7 165.1 8.176 14.16-168.1 97.08-8.605-14.9z"/>
    <path d="m261.8 199.2-7.707 13.35 111.1 64.17 8.276-14.33-111.2-64.18z"/>
    <path d="m371.9 435.4h-12.5v-207.9h12.65z"/>
    <circle opacity="1" cy="268.2" cx="365.4" r="20.52"/>
   </g>
  </g>
  <g transform="matrix(1.196 0 0 1.196 -50.37 -50.37)" fill="#fff">
   <path d="m418.2 153.5 8.176 14.16-168.1 97.08-8.605-14.9z"/>
   <path d="m152.3 187.5-7.707 13.35 111.1 64.17 8.276-14.33-111.2-64.18z"/>
  </g>
  <g transform="matrix(1.196 0 0 1.196 -50.37 -50.37)" fill="#df382c">
   <path d="m262.3 423.8h-12.4v-207.9h12.65z"/>
   <circle cx="255.8" cy="256.6" r="20.52"/>
  </g>
 </g>
</svg>
